
<svg version="1.1" id="вперед" xmlns="http://www.w3.org/2000/svg"
	 y="0px" viewBox="0 0 477.2 477.2" style="enable-background:new 0 0 477.2 477.2;" xml:space="preserve">
<path fill="#fff" d="M360.7,229.1L135.6,4c-5.3-5.3-13.8-5.3-19.1,0s-5.3,13.8,0,19.1L332,238.6L116.5,454.1c-5.3,5.3-5.3,13.8,0,19.1
	c2.6,2.6,6.1,4,9.5,4c3.4,0,6.9-1.3,9.5-4l225.1-225.1C365.9,242.9,365.9,234.3,360.7,229.1z"/>
</svg>
