<svg version="1.1" id="назад" xmlns="http://www.w3.org/2000/svg"
	 viewBox="0 0 477.2 252.2" style="enable-background:new 0 0 477.2 477.2;" xml:space="preserve">
      <path d="M238.6,219.5L23.1,4C17.8-1.3,9.3-1.3,4,4s-5.3,13.8,0,19.1l225.1,225.1c5.3,5.3,13.8,5.3,19.1,0l225-225.1
	c2.6-2.6,4-6.1,4-9.5s-1.3-6.9-4-9.5c-5.3-5.3-13.8-5.3-19.1,0L238.6,219.5z"/>
</svg>
