<svg version="1.1" id="назад" xmlns="http://www.w3.org/2000/svg"
	 viewBox="0 0 477.2 477.2" style="enable-background:new 0 0 477.2 477.2;" xml:space="preserve">
<path fill="#ff6f00" d="M145.2,238.6L360.7,23.1c5.3-5.3,5.3-13.8,0-19.1s-13.8-5.3-19.1,0L116.5,229.1c-5.3,5.3-5.3,13.8,0,19.1l225.1,225
	c2.6,2.6,6.1,4,9.5,4s6.9-1.3,9.5-4c5.3-5.3,5.3-13.8,0-19.1L145.2,238.6z"/>
</svg>
