<svg version="1.1"  xmlns="http://www.w3.org/2000/svg" preserveAspectRatio="xMidYMid slice"
	 viewBox="0 0 1355 28.8"  style="enable-background:new 0 0 1355 28.8;" xml:space="preserve">
	<path fill="#3c9dc8" stroke="#3c9dc8"  d="M0,10.9v17.9h1355V10.9C903.3,48.7,451.7-26.9,0,10.9z"/>
</svg>
