<svg version="1.1" xmlns="http://www.w3.org/2000/svg"
	 viewBox="0 0 1355 272" style="enable-background:new 0 0 1355 272;" xml:space="preserve">
<g id="Слой_2">
	<g>
		<path fill="#FFFFFF" d="M1355,264.6c-451.7,25.7-903.3-25.7-1355,0C0,178.9,0,93.2,0,7.4c451.7-25.7,903.3,25.7,1355,0
			C1355,93.2,1355,178.9,1355,264.6z"/>
	</g>
</g>
<g id="Слой_1">
	<path fill="#3045E2" d="M0,7.4c0,1.3,0,2.7,0,4c451.7-25.7,903.3,25.7,1355,0c0-1.3,0-2.7,0-4C903.3,33.1,451.7-18.3,0,7.4z"/>
</g>
</svg>